%YAML 1.1
%TAG !u! tag:unity3d.com,2011:
--- !u!114 &11400000
MonoBehaviour:
  m_ObjectHideFlags: 0
  m_CorrespondingSourceObject: {fileID: 0}
  m_PrefabInstance: {fileID: 0}
  m_PrefabAsset: {fileID: 0}
  m_GameObject: {fileID: 0}
  m_Enabled: 1
  m_EditorHideFlags: 0
  m_Script: {fileID: -1893448595, guid: a040fb66244a7f54289914d98ea4ef7d, type: 3}
  m_Name: CardPicker
  m_EditorClassIdentifier: 
  _data:
    _json: '{"graph":{"variables":{"collection":{"$content":[],"$version":"A"},"$version":"A"},"controlInputDefinitions":[],"controlOutputDefinitions":[],"valueInputDefinitions":[],"valueOutputDefinitions":[],"title":"Card
      Picker","summary":null,"pan":{"x":934.5065,"y":-712.0701},"zoom":0.25,"elements":[{"chainable":false,"member":{"name":"GetSiblingIndex","parameterTypes":[],"targetType":"UnityEngine.RectTransform","targetTypeName":"UnityEngine.RectTransform","$version":"A"},"defaultValues":{"target":null},"position":{"x":1484.0,"y":-562.0},"guid":"7051ec7d-0deb-4391-965f-7c420f098994","$version":"A","$type":"Bolt.InvokeMember","$id":"9"},{"specifyFallback":false,"kind":"Scene","defaultValues":{"name":{"$content":"pair","$type":"System.String"}},"position":{"x":1148.0,"y":-1057.0},"guid":"769e816c-8ae2-43be-b574-4fc40ca83c17","$version":"A","$type":"Bolt.GetVariable","$id":"12"},{"numeric":false,"defaultValues":{},"position":{"x":1332.0,"y":-1060.0},"guid":"33a61e8f-f50b-4405-9147-839d1c0b21be","$version":"A","$type":"Bolt.Equal","$id":"14"},{"type":"System.Int32","value":{"$content":1,"$type":"System.Int32"},"defaultValues":{},"position":{"x":1216.0,"y":-936.0},"guid":"cf2737a2-d792-45c6-a998-904dfe0ae749","$version":"A","$type":"Bolt.Literal","$id":"16"},{"kind":"Scene","defaultValues":{"name":{"$content":"secondName","$type":"System.String"}},"position":{"x":1914.0,"y":-737.0},"guid":"e76f1cb4-b61d-47c9-9a2d-c436bab4f92c","$version":"A","$type":"Bolt.SetVariable","$id":"18"},{"kind":"Scene","defaultValues":{"name":{"$content":"firstName","$type":"System.String"}},"position":{"x":1899.0,"y":-1163.0},"guid":"2a805ab9-cfe4-4a70-a7a7-a74916c39241","$version":"A","$type":"Bolt.SetVariable","$id":"20"},{"specifyFallback":false,"kind":"Scene","defaultValues":{"name":{"$content":"pair","$type":"System.String"}},"position":{"x":1140.0,"y":-647.0},"guid":"2d734ff5-90f3-419c-a78b-0a58b0860a50","$version":"A","$type":"Bolt.GetVariable","$id":"22"},{"defaultValues":{},"position":{"x":566.0,"y":-945.0},"guid":"6fafa121-33de-436c-99e0-484ffae24ac2","$version":"A","$type":"Bolt.GenericAdd","$id":"24"},{"kind":"Scene","defaultValues":{"name":{"$content":"pair","$type":"System.String"}},"position":{"x":606.0,"y":-1153.0},"guid":"626ee678-bfb8-43af-bf92-26f9731392aa","$version":"A","$type":"Bolt.SetVariable","$id":"26"},{"type":"System.Int32","value":{"$content":1,"$type":"System.Int32"},"defaultValues":{},"position":{"x":409.0,"y":-866.0},"guid":"250ad16c-9954-483e-8720-61f52bf3a928","$version":"A","$type":"Bolt.Literal","$id":"28"},{"kind":"Scene","defaultValues":{"name":{"$content":"firstID","$type":"System.String"}},"position":{"x":1667.0,"y":-1147.0},"guid":"fcb2d578-a0e9-46cc-b47c-cbb8406f5a33","$version":"A","$type":"Bolt.SetVariable","$id":"30"},{"chainable":false,"member":{"name":"GetChild","parameterTypes":["System.Int32"],"targetType":"UnityEngine.Transform","targetTypeName":"UnityEngine.Transform","$version":"A"},"defaultValues":{"target":null,"%index":{"$content":1,"$type":"System.Int32"}},"position":{"x":-17.0,"y":-920.0},"guid":"1b6fa540-bdcd-4185-9822-493fc589a177","$version":"A","$type":"Bolt.InvokeMember","$id":"32"},{"chainable":false,"member":{"name":"SetActive","parameterTypes":["System.Boolean"],"targetType":"UnityEngine.GameObject","targetTypeName":"UnityEngine.GameObject","$version":"A"},"defaultValues":{"target":null,"%value":{"$content":false,"$type":"System.Boolean"}},"position":{"x":376.0,"y":-1144.0},"guid":"573f07c9-b304-4ea8-9135-ed1f6689ef24","$version":"A","$type":"Bolt.InvokeMember","$id":"35"},{"coroutine":false,"defaultValues":{"target":null},"position":{"x":-31.0,"y":-1137.0},"guid":"7851eaea-649a-4865-a817-5e6a673eec1c","$version":"A","$type":"Bolt.OnPointerDown","$id":"38"},{"defaultValues":{},"position":{"x":1477.0,"y":-732.0},"guid":"3d7244cf-59c3-402a-bc6e-ac47c021f301","$version":"A","$type":"Bolt.Branch","$id":"40"},{"member":{"name":"name","parameterTypes":null,"targetType":"UnityEngine.GameObject","targetTypeName":"UnityEngine.GameObject","$version":"A"},"defaultValues":{"target":null},"position":{"x":1725.0,"y":-562.0},"guid":"35476202-babd-42b6-aa7a-6bde580d3909","$version":"A","$type":"Bolt.GetMember","$id":"42"},{"specifyFallback":false,"kind":"Scene","defaultValues":{"name":{"$content":"pair","$type":"System.String"}},"position":{"x":382.0,"y":-977.0},"guid":"de7906a3-4b31-48fd-a5c1-20d2a8a16a04","$version":"A","$type":"Bolt.GetVariable","$id":"45"},{"type":"System.Int32","value":{"$content":2,"$type":"System.Int32"},"defaultValues":{},"position":{"x":1208.0,"y":-526.0},"guid":"447e32f8-32c8-4c52-ab31-59a172430ced","$version":"A","$type":"Bolt.Literal","$id":"47"},{"chainable":false,"member":{"name":"GetSiblingIndex","parameterTypes":[],"targetType":"UnityEngine.RectTransform","targetTypeName":"UnityEngine.RectTransform","$version":"A"},"defaultValues":{"target":null},"position":{"x":1482.0,"y":-976.0},"guid":"7afed059-f0f0-4a20-b0b7-93191cc08bf4","$version":"A","$type":"Bolt.InvokeMember","$id":"49"},{"kind":"Scene","defaultValues":{"name":{"$content":"secondID","$type":"System.String"}},"position":{"x":1659.0,"y":-737.0},"guid":"ba4bd46b-3290-45a3-a6ee-42b7bb0d0a19","$version":"A","$type":"Bolt.SetVariable","$id":"52"},{"numeric":false,"defaultValues":{},"position":{"x":1324.0,"y":-650.0},"guid":"7ada34c0-87d4-4bc7-96b6-dc2ebf46e263","$version":"A","$type":"Bolt.Equal","$id":"54"},{"defaultValues":{},"position":{"x":1485.0,"y":-1142.0},"guid":"49919e3b-c929-4ff6-9dc3-e9a590027a97","$version":"A","$type":"Bolt.Branch","$id":"56"},{"member":{"name":"name","parameterTypes":null,"targetType":"UnityEngine.GameObject","targetTypeName":"UnityEngine.GameObject","$version":"A"},"defaultValues":{"target":null},"position":{"x":1712.0,"y":-954.0},"guid":"f770d940-d673-4a65-a930-82472acfc43c","$version":"A","$type":"Bolt.GetMember","$id":"58"},{"type":"System.Boolean","value":{"$content":false,"$type":"System.Boolean"},"defaultValues":{},"position":{"x":210.0,"y":-894.0},"guid":"718d5362-4141-4b08-8794-cc256712adfb","$version":"A","$type":"Bolt.Literal","$id":"61"},{"outputCount":2,"defaultValues":{},"position":{"x":934.0,"y":-975.0},"guid":"2c0bbb48-8a4b-4e37-b854-5e2f2eb78ba6","$version":"A","$type":"Bolt.Sequence","$id":"63"},{"sourceUnit":{"$ref":"30"},"sourceKey":"assigned","destinationUnit":{"$ref":"20"},"destinationKey":"assign","guid":"36fdb47d-7fa1-4590-83a8-49340b3092a3","$type":"Bolt.ControlConnection"},{"sourceUnit":{"$ref":"40"},"sourceKey":"ifTrue","destinationUnit":{"$ref":"52"},"destinationKey":"assign","guid":"3213712c-8fab-4bd5-b98b-9cf1bce9e2bb","$type":"Bolt.ControlConnection"},{"sourceUnit":{"$ref":"56"},"sourceKey":"ifTrue","destinationUnit":{"$ref":"30"},"destinationKey":"assign","guid":"67359351-928a-4310-8fa0-a836a649c84c","$type":"Bolt.ControlConnection"},{"sourceUnit":{"$ref":"35"},"sourceKey":"exit","destinationUnit":{"$ref":"26"},"destinationKey":"assign","guid":"f677c584-ce65-4514-bcb2-fda82f6377a6","$type":"Bolt.ControlConnection"},{"sourceUnit":{"$ref":"38"},"sourceKey":"trigger","destinationUnit":{"$ref":"35"},"destinationKey":"enter","guid":"e799592f-d245-461b-a2cf-0ae538957bee","$type":"Bolt.ControlConnection"},{"sourceUnit":{"$ref":"63"},"sourceKey":"0","destinationUnit":{"$ref":"56"},"destinationKey":"enter","guid":"ad0c66a1-5686-44c1-8f3d-7869b89e6460","$type":"Bolt.ControlConnection"},{"sourceUnit":{"$ref":"63"},"sourceKey":"1","destinationUnit":{"$ref":"40"},"destinationKey":"enter","guid":"183e19a5-a1da-4ffc-86f5-b5cd20c010ee","$type":"Bolt.ControlConnection"},{"sourceUnit":{"$ref":"26"},"sourceKey":"assigned","destinationUnit":{"$ref":"63"},"destinationKey":"enter","guid":"eef1ce93-cb66-40cf-80f1-8841aabdc1e6","$type":"Bolt.ControlConnection"},{"sourceUnit":{"$ref":"52"},"sourceKey":"assigned","destinationUnit":{"$ref":"18"},"destinationKey":"assign","guid":"a6fd7a30-d2f4-4e7f-b61b-5c676a885f9f","$type":"Bolt.ControlConnection"},{"sourceUnit":{"$ref":"61"},"sourceKey":"output","destinationUnit":{"$ref":"35"},"destinationKey":"%value","guid":"aac05f1c-fbf6-4dad-90ee-c79698abc0b4","$type":"Bolt.ValueConnection"},{"sourceUnit":{"$ref":"28"},"sourceKey":"output","destinationUnit":{"$ref":"24"},"destinationKey":"b","guid":"1e753522-7a04-4800-a69d-63be4d863ffd","$type":"Bolt.ValueConnection"},{"sourceUnit":{"$ref":"58"},"sourceKey":"value","destinationUnit":{"$ref":"20"},"destinationKey":"input","guid":"4f4dc945-9c26-4cdc-87a2-225cf3ff118b","$type":"Bolt.ValueConnection"},{"sourceUnit":{"$ref":"22"},"sourceKey":"value","destinationUnit":{"$ref":"54"},"destinationKey":"a","guid":"1e38af0e-f0a5-45aa-8e3c-24655777bc51","$type":"Bolt.ValueConnection"},{"sourceUnit":{"$ref":"42"},"sourceKey":"value","destinationUnit":{"$ref":"18"},"destinationKey":"input","guid":"f88723fb-89df-4027-90eb-7fcb7568fbcf","$type":"Bolt.ValueConnection"},{"sourceUnit":{"$ref":"9"},"sourceKey":"result","destinationUnit":{"$ref":"52"},"destinationKey":"input","guid":"67cc64e8-2384-417f-bc4c-14162f60ac54","$type":"Bolt.ValueConnection"},{"sourceUnit":{"$ref":"45"},"sourceKey":"value","destinationUnit":{"$ref":"24"},"destinationKey":"a","guid":"7207524e-cd06-4304-9759-c1aa1af7b20f","$type":"Bolt.ValueConnection"},{"sourceUnit":{"$ref":"49"},"sourceKey":"result","destinationUnit":{"$ref":"30"},"destinationKey":"input","guid":"92a1d0f4-67fe-48b4-a16e-84a9cbd99e70","$type":"Bolt.ValueConnection"},{"sourceUnit":{"$ref":"12"},"sourceKey":"value","destinationUnit":{"$ref":"14"},"destinationKey":"a","guid":"c4628152-1d85-43b6-8fab-286048323b59","$type":"Bolt.ValueConnection"},{"sourceUnit":{"$ref":"54"},"sourceKey":"equal","destinationUnit":{"$ref":"40"},"destinationKey":"condition","guid":"a4658a7c-e392-481e-a39a-428fe872fff5","$type":"Bolt.ValueConnection"},{"sourceUnit":{"$ref":"32"},"sourceKey":"result","destinationUnit":{"$ref":"35"},"destinationKey":"target","guid":"f6550fcd-fe1d-485f-bf6d-41e6423131c3","$type":"Bolt.ValueConnection"},{"sourceUnit":{"$ref":"24"},"sourceKey":"sum","destinationUnit":{"$ref":"26"},"destinationKey":"input","guid":"85760af3-2f58-49df-b561-6da0f8b6816a","$type":"Bolt.ValueConnection"},{"sourceUnit":{"$ref":"14"},"sourceKey":"equal","destinationUnit":{"$ref":"56"},"destinationKey":"condition","guid":"b179a3f0-d0ac-432f-bafc-b9d243f5aeed","$type":"Bolt.ValueConnection"},{"sourceUnit":{"$ref":"16"},"sourceKey":"output","destinationUnit":{"$ref":"14"},"destinationKey":"b","guid":"043ee75d-4156-4afb-8ae5-cc05b55dbca2","$type":"Bolt.ValueConnection"},{"sourceUnit":{"$ref":"47"},"sourceKey":"output","destinationUnit":{"$ref":"54"},"destinationKey":"b","guid":"34f53b5d-c938-422c-8c60-1eba2593398d","$type":"Bolt.ValueConnection"},{"position":{"xMin":1122.0,"yMin":-1206.0,"xMax":2078.0,"yMax":-821.0},"label":"Set
      First","comment":null,"color":{"r":0.0,"g":0.0,"b":0.0,"a":1.0},"guid":"12778d61-c93a-4037-a142-b2e6a00f1bfd","$version":"A","$type":"Ludiq.GraphGroup"},{"position":{"xMin":1118.0,"yMin":-783.0,"xMax":2111.0,"yMax":-398.0},"label":"Set
      Second","comment":null,"color":{"r":0.0,"g":0.0,"b":0.0,"a":1.0},"guid":"53f81431-d6c3-4335-b1b4-e57f9dd97f96","$version":"A","$type":"Ludiq.GraphGroup"},{"position":{"xMin":-90.0,"yMin":-1212.0,"xMax":812.0,"yMax":-760.0},"label":"Show
      Card","comment":null,"color":{"r":0.0,"g":0.0,"b":0.0,"a":1.0},"guid":"4b7802ac-0d86-4cdd-80de-95bbd2afeac9","$version":"A","$type":"Ludiq.GraphGroup"}],"$version":"A"}}'
    _objectReferences: []
