%YAML 1.1
%TAG !u! tag:unity3d.com,2011:
--- !u!114 &11400000
MonoBehaviour:
  m_ObjectHideFlags: 0
  m_CorrespondingSourceObject: {fileID: 0}
  m_PrefabInstance: {fileID: 0}
  m_PrefabAsset: {fileID: 0}
  m_GameObject: {fileID: 0}
  m_Enabled: 1
  m_EditorHideFlags: 0
  m_Script: {fileID: -1893448595, guid: a040fb66244a7f54289914d98ea4ef7d, type: 3}
  m_Name: MouseJoystick
  m_EditorClassIdentifier: 
  _data:
    _json: '{"graph":{"variables":{"collection":{"$content":[{"name":"noTouch","value":{"$content":true,"$type":"System.Boolean"},"$version":"A"},{"name":"positionOffset","value":{"x":0.0,"y":0.0,"z":0.0,"$type":"UnityEngine.Vector3"},"$version":"A"}],"$version":"A"},"$version":"A"},"controlInputDefinitions":[{"key":"mouseIn","label":null,"summary":null,"hideLabel":true}],"controlOutputDefinitions":[{"key":"mouseOut","label":null,"summary":null,"hideLabel":true}],"valueInputDefinitions":[{"hasDefaultValue":true,"defaultValue":{"x":1.0,"y":1.0,"z":1.0,"$type":"UnityEngine.Vector3"},"_type":"UnityEngine.Vector3","key":"sensitivity","label":null,"summary":null,"hideLabel":false}],"valueOutputDefinitions":[{"_type":"System.Boolean","key":"isMousePressed","label":null,"summary":null,"hideLabel":false},{"_type":"System.Single","key":"xOut","label":null,"summary":null,"hideLabel":false},{"_type":"System.Single","key":"yOut","label":null,"summary":null,"hideLabel":false}],"title":null,"summary":null,"pan":{"x":73.71487,"y":264.1058},"zoom":1.0,"elements":[{"member":{"name":"main","parameterTypes":null,"targetType":"UnityEngine.Camera","targetTypeName":"UnityEngine.Camera","$version":"A"},"defaultValues":{},"position":{"x":-531.0,"y":-209.0},"guid":"d64d0968-82d8-4571-9ce8-f1efb67b78fd","$version":"A","$type":"Bolt.GetMember","$id":"17"},{"member":{"name":"y","parameterTypes":null,"targetType":"UnityEngine.Vector3","targetTypeName":"UnityEngine.Vector3","$version":"A"},"defaultValues":{"target":{"x":0.0,"y":0.0,"z":0.0,"$type":"UnityEngine.Vector3"}},"position":{"x":375.0,"y":-225.0},"guid":"2978dc3d-5113-42d1-9558-7a28a1db30b5","$version":"A","$type":"Bolt.GetMember","$id":"20"},{"member":{"name":"x","parameterTypes":null,"targetType":"UnityEngine.Vector3","targetTypeName":"UnityEngine.Vector3","$version":"A"},"defaultValues":{"target":{"x":0.0,"y":0.0,"z":0.0,"$type":"UnityEngine.Vector3"}},"position":{"x":402.0,"y":-330.0},"guid":"a178deba-8be1-43b0-b850-5dc0abf0d946","$version":"A","$type":"Bolt.GetMember","$id":"23"},{"defaultValues":{"b":{"x":0.0,"y":0.0,"z":0.0,"$type":"UnityEngine.Vector3"}},"position":{"x":239.0,"y":-352.0},"guid":"b607f985-e206-45d6-90c1-5e74f6730709","$version":"A","$type":"Bolt.Vector3Multiply","$id":"26"},{"type":"System.Boolean","value":{"$content":false,"$type":"System.Boolean"},"defaultValues":{},"position":{"x":-12.0,"y":196.0},"guid":"9122438d-531e-46bc-872b-21c19b28ba55","$version":"A","$type":"Bolt.Literal","$id":"28"},{"chainable":false,"member":{"name":"Clamp","parameterTypes":["System.Single","System.Single","System.Single"],"targetType":"UnityEngine.Mathf","targetTypeName":"UnityEngine.Mathf","$version":"A"},"defaultValues":{"%value":{"$content":0.0,"$type":"System.Single"},"%min":{"$content":-1.0,"$type":"System.Single"},"%max":{"$content":1.0,"$type":"System.Single"}},"position":{"x":588.0,"y":-356.0},"guid":"edff2ac8-7c12-4505-b777-0b992be101cd","$version":"A","$type":"Bolt.InvokeMember","$id":"30"},{"type":"System.Boolean","value":{"$content":true,"$type":"System.Boolean"},"defaultValues":{},"position":{"x":-11.0,"y":-74.0},"guid":"c539f409-e307-434c-9af3-a84bde73339a","$version":"A","$type":"Bolt.Literal","$id":"33"},{"chainable":false,"member":{"name":"GetMouseButton","parameterTypes":["System.Int32"],"targetType":"UnityEngine.Input","targetTypeName":"UnityEngine.Input","$version":"A"},"defaultValues":{"%button":{"$content":0,"$type":"System.Int32"}},"position":{"x":-407.0,"y":-389.0},"guid":"187f0645-4042-42b6-bc65-4d8d7dc40846","$version":"A","$type":"Bolt.InvokeMember","$id":"35"},{"defaultValues":{},"position":{"x":-125.0,"y":74.0},"guid":"c693010f-332c-4330-9ebf-a9a4361a7004","$version":"A","$type":"Bolt.Branch","$id":"38"},{"defaultValues":{},"position":{"x":-292.0,"y":90.0},"guid":"66b57d23-7f00-441f-9b60-3415f5320787","$version":"A","$type":"Bolt.Branch","$id":"40"},{"chainable":false,"member":{"name":"Clamp","parameterTypes":["System.Single","System.Single","System.Single"],"targetType":"UnityEngine.Mathf","targetTypeName":"UnityEngine.Mathf","$version":"A"},"defaultValues":{"%value":{"$content":0.0,"$type":"System.Single"},"%min":{"$content":-1.0,"$type":"System.Single"},"%max":{"$content":1.0,"$type":"System.Single"}},"position":{"x":511.0,"y":-225.0},"guid":"6b0793f2-a639-4aa6-a170-d0bd1e5720bd","$version":"A","$type":"Bolt.InvokeMember","$id":"42"},{"defaultValues":{"minuend":{"x":0.0,"y":0.0,"z":0.0,"$type":"UnityEngine.Vector3"},"subtrahend":{"x":0.0,"y":0.0,"z":0.0,"$type":"UnityEngine.Vector3"}},"position":{"x":32.0,"y":-420.0},"guid":"26a8fd7b-6edb-4afe-aee6-904ea395887f","$version":"A","$type":"Bolt.Vector3Subtract","$id":"45"},{"kind":"Graph","defaultValues":{"name":{"$content":"noTouch","$type":"System.String"}},"position":{"x":144.0,"y":-64.0},"guid":"ef1b0f2d-48ad-4fa1-b00a-cbc11b3a94e3","$version":"A","$type":"Bolt.SetVariable","$id":"47"},{"chainable":false,"member":{"name":"ScreenToViewportPoint","parameterTypes":["UnityEngine.Vector3"],"targetType":"UnityEngine.Camera","targetTypeName":"UnityEngine.Camera","$version":"A"},"defaultValues":{"target":null,"%position":{"x":0.0,"y":0.0,"z":0.0,"$type":"UnityEngine.Vector3"}},"position":{"x":-263.0,"y":-180.0},"guid":"88af707c-ca52-4bb6-986e-744b23e99eb1","$version":"A","$type":"Bolt.InvokeMember","$id":"49"},{"specifyFallback":false,"kind":"Graph","defaultValues":{"name":{"$content":"noTouch","$type":"System.String"}},"position":{"x":-309.0,"y":246.0},"guid":"bf467376-9def-42d6-bb95-33a8ce595d5f","$version":"A","$type":"Bolt.GetVariable","$id":"52"},{"kind":"Graph","defaultValues":{"name":{"$content":"noTouch","$type":"System.String"}},"position":{"x":147.0,"y":98.0},"guid":"325e2c1a-be06-472e-adf8-5941fd71c99f","$version":"A","$type":"Bolt.SetVariable","$id":"54"},{"kind":"Graph","defaultValues":{"name":{"$content":"positionOffset","$type":"System.String"}},"position":{"x":362.0,"y":118.0},"guid":"a98049f6-7970-4766-8b69-0692e044ba06","$version":"A","$type":"Bolt.SetVariable","$id":"56"},{"specifyFallback":false,"kind":"Graph","defaultValues":{"name":{"$content":"positionOffset","$type":"System.String"}},"position":{"x":-508.0,"y":-18.0},"guid":"c1177014-d050-4fe1-8449-975684c7daf0","$version":"A","$type":"Bolt.GetVariable","$id":"58"},{"member":{"name":"mousePosition","parameterTypes":null,"targetType":"UnityEngine.Input","targetTypeName":"UnityEngine.Input","$version":"A"},"defaultValues":{},"position":{"x":-537.0,"y":-105.0},"guid":"b13b0850-960b-40b4-a45b-17712fea9339","$version":"A","$type":"Bolt.GetMember","$id":"60"},{"defaultValues":{},"position":{"x":-565.0,"y":-386.0},"guid":"0261edd5-cd1f-4537-b06d-97ea48f12bb4","$version":"A","$type":"Bolt.GraphInput","$id":"63"},{"defaultValues":{},"position":{"x":683.0,"y":-109.0},"guid":"9d6e6ce1-198f-4535-8952-7e4ccb966a95","$version":"A","$type":"Bolt.GraphOutput","$id":"65"},{"sourceUnit":{"$ref":"35"},"sourceKey":"exit","destinationUnit":{"$ref":"49"},"destinationKey":"enter","guid":"7393983e-890c-49cf-adbf-3e7926bb01e8","$type":"Bolt.ControlConnection"},{"sourceUnit":{"$ref":"49"},"sourceKey":"exit","destinationUnit":{"$ref":"40"},"destinationKey":"enter","guid":"bbc8b9c3-0425-4c50-a136-330cbc615ad5","$type":"Bolt.ControlConnection"},{"sourceUnit":{"$ref":"54"},"sourceKey":"assigned","destinationUnit":{"$ref":"56"},"destinationKey":"assign","guid":"9c7a9f68-7941-48d9-9154-ba3890a925a0","$type":"Bolt.ControlConnection"},{"sourceUnit":{"$ref":"56"},"sourceKey":"assigned","destinationUnit":{"$ref":"65"},"destinationKey":"mouseOut","guid":"67044f25-c37f-4628-9b40-5e51663ba611","$type":"Bolt.ControlConnection"},{"sourceUnit":{"$ref":"63"},"sourceKey":"mouseIn","destinationUnit":{"$ref":"35"},"destinationKey":"enter","guid":"af49ccbd-2ebf-4ba5-adb3-d706c52a26c4","$type":"Bolt.ControlConnection"},{"sourceUnit":{"$ref":"40"},"sourceKey":"ifTrue","destinationUnit":{"$ref":"38"},"destinationKey":"enter","guid":"db2d1de4-3047-46c1-8fbb-5514904e7ba3","$type":"Bolt.ControlConnection"},{"sourceUnit":{"$ref":"38"},"sourceKey":"ifTrue","destinationUnit":{"$ref":"54"},"destinationKey":"assign","guid":"309c0d40-06a8-4e09-aad6-074459c6fb39","$type":"Bolt.ControlConnection"},{"sourceUnit":{"$ref":"40"},"sourceKey":"ifFalse","destinationUnit":{"$ref":"47"},"destinationKey":"assign","guid":"18da654c-e752-4941-b0c8-7881e8e85818","$type":"Bolt.ControlConnection"},{"sourceUnit":{"$ref":"38"},"sourceKey":"ifFalse","destinationUnit":{"$ref":"65"},"destinationKey":"mouseOut","guid":"9f26b014-e1a4-4fdc-a187-1c52585dcf64","$type":"Bolt.ControlConnection"},{"sourceUnit":{"$ref":"47"},"sourceKey":"assigned","destinationUnit":{"$ref":"65"},"destinationKey":"mouseOut","guid":"8141e544-71d7-4338-a592-7fe3b25ad0aa","$type":"Bolt.ControlConnection"},{"sourceUnit":{"$ref":"60"},"sourceKey":"value","destinationUnit":{"$ref":"49"},"destinationKey":"%position","guid":"1806e2d4-2577-4488-9d1a-8ec7df1738e6","$type":"Bolt.ValueConnection"},{"sourceUnit":{"$ref":"45"},"sourceKey":"difference","destinationUnit":{"$ref":"26"},"destinationKey":"a","guid":"004b6e18-0828-41c0-8bf1-b57ba7bd91d5","$type":"Bolt.ValueConnection"},{"sourceUnit":{"$ref":"35"},"sourceKey":"result","destinationUnit":{"$ref":"65"},"destinationKey":"isMousePressed","guid":"67b306e7-2bc3-45b5-a245-70c1483a6dd9","$type":"Bolt.ValueConnection"},{"sourceUnit":{"$ref":"23"},"sourceKey":"value","destinationUnit":{"$ref":"30"},"destinationKey":"%value","guid":"7f040f00-3045-4cd3-a22e-350e5e338abc","$type":"Bolt.ValueConnection"},{"sourceUnit":{"$ref":"58"},"sourceKey":"value","destinationUnit":{"$ref":"45"},"destinationKey":"subtrahend","guid":"14e5af8b-cb53-45b5-bf86-a1fac6b5caf4","$type":"Bolt.ValueConnection"},{"sourceUnit":{"$ref":"30"},"sourceKey":"result","destinationUnit":{"$ref":"65"},"destinationKey":"xOut","guid":"9d3c1948-51db-48f3-8734-96addbbe6147","$type":"Bolt.ValueConnection"},{"sourceUnit":{"$ref":"26"},"sourceKey":"product","destinationUnit":{"$ref":"20"},"destinationKey":"target","guid":"8e45fe7a-0eb3-4e8f-8a71-b56a6bc9cd02","$type":"Bolt.ValueConnection"},{"sourceUnit":{"$ref":"52"},"sourceKey":"value","destinationUnit":{"$ref":"38"},"destinationKey":"condition","guid":"3ff0e09e-b1d0-45e1-b669-8372711956bc","$type":"Bolt.ValueConnection"},{"sourceUnit":{"$ref":"26"},"sourceKey":"product","destinationUnit":{"$ref":"23"},"destinationKey":"target","guid":"413fd709-7b47-4b1d-a9ea-7ca6b28a737b","$type":"Bolt.ValueConnection"},{"sourceUnit":{"$ref":"63"},"sourceKey":"sensitivity","destinationUnit":{"$ref":"26"},"destinationKey":"b","guid":"5765e60f-465f-4b9f-8035-e25015934fd2","$type":"Bolt.ValueConnection"},{"sourceUnit":{"$ref":"49"},"sourceKey":"result","destinationUnit":{"$ref":"56"},"destinationKey":"input","guid":"a26879d5-446f-47ea-89a0-5306478bbc4f","$type":"Bolt.ValueConnection"},{"sourceUnit":{"$ref":"20"},"sourceKey":"value","destinationUnit":{"$ref":"42"},"destinationKey":"%value","guid":"2da3d62f-2200-4754-ad8a-e9d7b80aa02a","$type":"Bolt.ValueConnection"},{"sourceUnit":{"$ref":"33"},"sourceKey":"output","destinationUnit":{"$ref":"47"},"destinationKey":"input","guid":"be52d6f9-4efc-4c44-81f9-ec444420a86a","$type":"Bolt.ValueConnection"},{"sourceUnit":{"$ref":"28"},"sourceKey":"output","destinationUnit":{"$ref":"54"},"destinationKey":"input","guid":"9e5b76d5-bb09-4258-97a1-a027c8844a92","$type":"Bolt.ValueConnection"},{"sourceUnit":{"$ref":"35"},"sourceKey":"result","destinationUnit":{"$ref":"40"},"destinationKey":"condition","guid":"e0183911-8f77-407c-b963-40db6d944f00","$type":"Bolt.ValueConnection"},{"sourceUnit":{"$ref":"49"},"sourceKey":"result","destinationUnit":{"$ref":"45"},"destinationKey":"minuend","guid":"1072cab0-7cbf-4c34-a154-135884957abb","$type":"Bolt.ValueConnection"},{"sourceUnit":{"$ref":"17"},"sourceKey":"value","destinationUnit":{"$ref":"49"},"destinationKey":"target","guid":"3cf8a19d-bc08-4d51-b191-4cc0f3f95300","$type":"Bolt.ValueConnection"},{"sourceUnit":{"$ref":"42"},"sourceKey":"result","destinationUnit":{"$ref":"65"},"destinationKey":"yOut","guid":"f226dbe6-bfa9-4c49-8f31-51bc4d8330e4","$type":"Bolt.ValueConnection"}],"$version":"A"}}'
    _objectReferences: []
