%YAML 1.1
%TAG !u! tag:unity3d.com,2011:
--- !u!114 &11400000
MonoBehaviour:
  m_ObjectHideFlags: 0
  m_CorrespondingSourceObject: {fileID: 0}
  m_PrefabInstance: {fileID: 0}
  m_PrefabAsset: {fileID: 0}
  m_GameObject: {fileID: 0}
  m_Enabled: 1
  m_EditorHideFlags: 0
  m_Script: {fileID: -1893448595, guid: a040fb66244a7f54289914d98ea4ef7d, type: 3}
  m_Name: PuzzleGamePointer
  m_EditorClassIdentifier: 
  _data:
    _json: '{"graph":{"variables":{"collection":{"$content":[],"$version":"A"},"$version":"A"},"controlInputDefinitions":[],"controlOutputDefinitions":[],"valueInputDefinitions":[],"valueOutputDefinitions":[],"title":"Box","summary":null,"pan":{"x":-626.8671,"y":-492.3235},"zoom":1.0,"elements":[{"coroutine":false,"defaultValues":{"target":null},"position":{"x":-1028.0,"y":-561.0},"guid":"5189b12b-4f26-410e-ad11-da4d48cb24a2","$version":"A","$type":"Bolt.OnPointerClick","$id":"9"},{"type":"UnityEngine.Sprite","value":{"$content":0,"$type":"UnityEngine.Object"},"defaultValues":{},"position":{"x":-278.0,"y":121.0},"guid":"ea350564-3fb3-46f8-87fe-53232d411989","$version":"A","$type":"Bolt.Literal","$id":"11"},{"kind":"Scene","defaultValues":{"name":{"$content":"xTurn","$type":"System.String"}},"position":{"x":593.0,"y":-409.0},"guid":"0fb876f9-d0ac-49cd-b572-5fffc267905d","$version":"A","$type":"Bolt.SetVariable","$id":"13"},{"specifyFallback":false,"kind":"Scene","defaultValues":{"name":{"$content":"xTurn","$type":"System.String"}},"position":{"x":-284.0,"y":-270.0},"guid":"dbbf80f8-dc60-439c-81d1-868a4ef27785","$version":"A","$type":"Bolt.GetVariable","$id":"15"},{"chainable":false,"member":{"name":"text","parameterTypes":null,"targetType":"UnityEngine.UI.Text","targetTypeName":"UnityEngine.UI.Text","$version":"A"},"defaultValues":{"target":null,"input":{"$content":"","$type":"System.String"}},"position":{"x":198.0,"y":-402.0},"guid":"d392fc29-9fe1-4059-ae20-3ee31380af4c","$version":"A","$type":"Bolt.SetMember","$id":"17"},{"defaultValues":{},"position":{"x":64.0,"y":-268.0},"guid":"af6b82b6-7219-4c4e-9232-00992c4f5d9a","$version":"A","$type":"Bolt.SelectUnit","$id":"20"},{"defaultValues":{},"position":{"x":-496.0,"y":-508.0},"guid":"7c151c86-a7b7-4acd-be6c-fdbc33be2267","$version":"A","$type":"Bolt.Once","$id":"22"},{"type":"System.String","value":{"$content":"O","$type":"System.String"},"defaultValues":{},"position":{"x":-77.0,"y":-73.0},"guid":"8e0de564-42d7-44bf-bd67-b952537c6cdc","$version":"A","$type":"Bolt.Literal","$id":"24"},{"type":"UnityEngine.Sprite","value":{"$content":1,"$type":"UnityEngine.Object"},"defaultValues":{},"position":{"x":-274.0,"y":35.0},"guid":"4349f44e-16d4-442c-9516-e5d95235e26a","$version":"A","$type":"Bolt.Literal","$id":"26"},{"chainable":false,"member":{"name":"sprite","parameterTypes":null,"targetType":"UnityEngine.UI.Image","targetTypeName":"UnityEngine.UI.Image","$version":"A"},"defaultValues":{"target":null,"input":{"$content":2,"$type":"UnityEngine.Object"}},"position":{"x":371.0,"y":-401.0},"guid":"96ceca50-657e-4270-8e2c-306ef83f1ba9","$version":"A","$type":"Bolt.SetMember","$id":"28"},{"specifyFallback":false,"kind":"Scene","defaultValues":{"name":{"$content":"Won","$type":"System.String"}},"position":{"x":-1085.0,"y":-397.0},"guid":"1016ef0f-3211-4acd-ac33-55c11b7dba0e","$version":"A","$type":"Bolt.GetVariable","$id":"31"},{"specifyFallback":false,"kind":"Object","defaultValues":{"name":{"$content":"text","$type":"System.String"},"object":null},"position":{"x":-104.0,"y":-393.0},"guid":"4486c609-b07f-429d-869f-9879e444cf0d","$version":"A","$type":"Bolt.GetVariable","$id":"33"},{"defaultValues":{},"position":{"x":-652.0,"y":-569.0},"guid":"8618d9ea-45dd-45e8-8e08-c2c7507f420f","$version":"A","$type":"Bolt.Branch","$id":"35"},{"defaultValues":{},"position":{"x":409.0,"y":-192.0},"guid":"f50a8d45-2909-4a2e-ba2a-bffc6cd256c6","$version":"A","$type":"Bolt.Negate","$id":"37"},{"defaultValues":{},"position":{"x":33.0,"y":14.0},"guid":"5ec164d5-2750-47a7-8f1e-9725492961a2","$version":"A","$type":"Bolt.SelectUnit","$id":"39"},{"type":"System.String","value":{"$content":"X","$type":"System.String"},"defaultValues":{},"position":{"x":-78.0,"y":-168.0},"guid":"16aa6391-4e04-4ca2-bfb7-2047a2119873","$version":"A","$type":"Bolt.Literal","$id":"41"},{"defaultValues":{},"position":{"x":-336.0,"y":-626.0},"guid":"aaae54a3-2f08-4253-9378-513fd9954034","$version":"A","$type":"Bolt.GenericAdd","$id":"43"},{"type":"System.Int32","value":{"$content":1,"$type":"System.Int32"},"defaultValues":{},"position":{"x":-714.0,"y":-698.0},"guid":"7370e0f3-190c-41ea-97b3-1beba8f6c2df","$version":"A","$type":"Bolt.Literal","$id":"45"},{"coroutine":false,"defaultValues":{"key":{"$content":"E","$type":"UnityEngine.KeyCode"},"action":{"$content":"Up","$type":"Ludiq.PressState"}},"position":{"x":-770.0,"y":-393.0},"guid":"72b0b321-276e-42a3-b1a2-c746372dca25","$version":"A","$type":"Bolt.OnKeyboardInput","$id":"47"},{"argumentCount":0,"defaultValues":{"name":{"$content":"move","$type":"System.String"},"target":null},"position":{"x":853.0,"y":-421.0},"guid":"64a152c9-21f7-47c6-a6a7-e2e015709a72","$version":"A","$type":"Bolt.TriggerCustomEvent","$id":"49"},{"specifyFallback":false,"kind":"Scene","defaultValues":{"name":{"$content":"puzzleClicks","$type":"System.String"}},"position":{"x":-544.0,"y":-714.0},"guid":"3301ae23-d7cd-45bf-99ad-bd0b55d5d361","$version":"A","$type":"Bolt.GetVariable","$id":"51"},{"specifyFallback":false,"kind":"Scene","defaultValues":{"name":{"$content":"xTurn","$type":"System.String"}},"position":{"x":225.0,"y":66.0},"guid":"f82be38f-2f35-4054-87b6-fd01e51e5a63","$version":"A","$type":"Bolt.GetVariable","$id":"53"},{"kind":"Scene","defaultValues":{"name":{"$content":"puzzleClicks","$type":"System.String"}},"position":{"x":-137.0,"y":-605.0},"guid":"5018b0f0-d2fd-4341-b9e1-cbb6aeef256b","$version":"A","$type":"Bolt.SetVariable","$id":"55"},{"member":{"name":"parent","parameterTypes":null,"targetType":"UnityEngine.Transform","targetTypeName":"UnityEngine.Transform","$version":"A"},"defaultValues":{"target":null},"position":{"x":591.0,"y":-171.0},"guid":"c6d62916-19ac-430f-9320-ce64d3b7f0cc","$version":"A","$type":"Bolt.GetMember","$id":"57"},{"sourceUnit":{"$ref":"17"},"sourceKey":"assigned","destinationUnit":{"$ref":"28"},"destinationKey":"assign","guid":"b99e0e48-89de-42a3-80dd-77a1e7022014","$type":"Bolt.ControlConnection"},{"sourceUnit":{"$ref":"13"},"sourceKey":"assigned","destinationUnit":{"$ref":"49"},"destinationKey":"enter","guid":"1fe70f88-ffac-47c2-8e6d-1201f3814f88","$type":"Bolt.ControlConnection"},{"sourceUnit":{"$ref":"28"},"sourceKey":"assigned","destinationUnit":{"$ref":"13"},"destinationKey":"assign","guid":"3e6ae174-095a-4316-87c3-ced2798560b6","$type":"Bolt.ControlConnection"},{"sourceUnit":{"$ref":"22"},"sourceKey":"once","destinationUnit":{"$ref":"55"},"destinationKey":"assign","guid":"22402dcb-74be-4937-b427-ea715abe8b5e","$type":"Bolt.ControlConnection"},{"sourceUnit":{"$ref":"55"},"sourceKey":"assigned","destinationUnit":{"$ref":"17"},"destinationKey":"assign","guid":"3618c2da-f8fe-4a73-a799-3bc178fbafb6","$type":"Bolt.ControlConnection"},{"sourceUnit":{"$ref":"35"},"sourceKey":"ifFalse","destinationUnit":{"$ref":"22"},"destinationKey":"enter","guid":"c8ce5b49-99ea-4c70-a211-d0a17cc9db2a","$type":"Bolt.ControlConnection"},{"sourceUnit":{"$ref":"47"},"sourceKey":"trigger","destinationUnit":{"$ref":"22"},"destinationKey":"reset","guid":"3d59cc7c-2551-4f65-a7f5-7763fc52e122","$type":"Bolt.ControlConnection"},{"sourceUnit":{"$ref":"9"},"sourceKey":"trigger","destinationUnit":{"$ref":"35"},"destinationKey":"enter","guid":"4f94f188-ea7f-4349-b684-47f334e5024e","$type":"Bolt.ControlConnection"},{"sourceUnit":{"$ref":"53"},"sourceKey":"value","destinationUnit":{"$ref":"37"},"destinationKey":"input","guid":"4f25a5b0-a866-4796-bc6b-c25d832bd642","$type":"Bolt.ValueConnection"},{"sourceUnit":{"$ref":"31"},"sourceKey":"value","destinationUnit":{"$ref":"35"},"destinationKey":"condition","guid":"78dc3778-ca37-46d7-b102-89953d7fa3f3","$type":"Bolt.ValueConnection"},{"sourceUnit":{"$ref":"24"},"sourceKey":"output","destinationUnit":{"$ref":"20"},"destinationKey":"ifFalse","guid":"090e907e-dd86-41b0-a5df-96bfb17f8d5b","$type":"Bolt.ValueConnection"},{"sourceUnit":{"$ref":"43"},"sourceKey":"sum","destinationUnit":{"$ref":"55"},"destinationKey":"input","guid":"7667ab19-dd11-4d69-b05d-cc2dddd02daa","$type":"Bolt.ValueConnection"},{"sourceUnit":{"$ref":"15"},"sourceKey":"value","destinationUnit":{"$ref":"20"},"destinationKey":"condition","guid":"2f7caaa8-7a56-422d-9d3e-98ae0dc3b1cc","$type":"Bolt.ValueConnection"},{"sourceUnit":{"$ref":"20"},"sourceKey":"selection","destinationUnit":{"$ref":"17"},"destinationKey":"input","guid":"a25750fc-8db8-4c20-86f1-99c1a79c972c","$type":"Bolt.ValueConnection"},{"sourceUnit":{"$ref":"37"},"sourceKey":"output","destinationUnit":{"$ref":"13"},"destinationKey":"input","guid":"d4159e16-1644-43ff-8529-b819ffa79f37","$type":"Bolt.ValueConnection"},{"sourceUnit":{"$ref":"45"},"sourceKey":"output","destinationUnit":{"$ref":"43"},"destinationKey":"b","guid":"5d7709dc-a97d-405b-bc51-e8138e6e6e22","$type":"Bolt.ValueConnection"},{"sourceUnit":{"$ref":"41"},"sourceKey":"output","destinationUnit":{"$ref":"20"},"destinationKey":"ifTrue","guid":"2149e224-7494-4e72-a718-eb8adfb7f779","$type":"Bolt.ValueConnection"},{"sourceUnit":{"$ref":"57"},"sourceKey":"value","destinationUnit":{"$ref":"49"},"destinationKey":"target","guid":"32902d50-9606-43e8-b8e0-9f7a07559985","$type":"Bolt.ValueConnection"},{"sourceUnit":{"$ref":"39"},"sourceKey":"selection","destinationUnit":{"$ref":"28"},"destinationKey":"input","guid":"916c3bde-fefd-48b2-a87d-29b2b4279d9e","$type":"Bolt.ValueConnection"},{"sourceUnit":{"$ref":"15"},"sourceKey":"value","destinationUnit":{"$ref":"39"},"destinationKey":"condition","guid":"1b4caed6-e1e1-4967-930d-51d255f35318","$type":"Bolt.ValueConnection"},{"sourceUnit":{"$ref":"51"},"sourceKey":"value","destinationUnit":{"$ref":"43"},"destinationKey":"a","guid":"bfcd4e26-496c-4ebd-b240-ba652e17c1e2","$type":"Bolt.ValueConnection"},{"sourceUnit":{"$ref":"33"},"sourceKey":"value","destinationUnit":{"$ref":"17"},"destinationKey":"target","guid":"fe228370-72e8-4d07-b3df-5405fa6884be","$type":"Bolt.ValueConnection"},{"sourceUnit":{"$ref":"26"},"sourceKey":"output","destinationUnit":{"$ref":"39"},"destinationKey":"ifTrue","guid":"b5059831-3636-447e-9f8c-cc63a6522452","$type":"Bolt.ValueConnection"},{"sourceUnit":{"$ref":"11"},"sourceKey":"output","destinationUnit":{"$ref":"39"},"destinationKey":"ifFalse","guid":"4d22a3ef-c1d0-461d-9f8c-7698c0dd0cc5","$type":"Bolt.ValueConnection"}],"$version":"A"}}'
    _objectReferences:
    - {fileID: 21300000, guid: bd9c275a11bbc4f929084d17c5b7ddb2, type: 3}
    - {fileID: 21300000, guid: ca535c51a3ff54b42ba04cccd84a4496, type: 3}
    - {fileID: 21300000, guid: bac3fc605249449999015787f33f1e79, type: 3}
